{
  "project_info": {
    "project_number": "1075811629235",
    "firebase_url": "https://citylinq2.firebaseio.com",
    "project_id": "citylinq2",
    "storage_bucket": "citylinq2.appspot.com"
  },
  "client": [
    {
      "client_info": {
        "mobilesdk_app_id": "1:1075811629235:android:f880a4fdc0d7ecc0",
        "android_client_info": {
          "package_name": "sanguinebits.com.citylinq"
        }
      },
      "oauth_client": [
        {
          "client_id": "1075811629235-k6mbbdpelp4e5gfaqot51aodjrfdl98d.apps.googleusercontent.com",
          "client_type": 1,
          "android_info": {
            "package_name": "sanguinebits.com.citylinq",
            "certificate_hash": "48bc4ca7a21ab1755d5c8dde287104aab6b26c18"
          }
        },
        {
          "client_id": "1075811629235-ui23kmd1kvt094j3n00brlit093srd13.apps.googleusercontent.com",
          "client_type": 3
        }
      ],
      "api_key": [
        {
          "current_key": "AIzaSyAld0RqvGrxaMqJXHmJYPauqlZi7Ij0OAA"
        }
      ],
      "services": {
        "analytics_service": {
          "status": 1
        },
        "appinvite_service": {
          "status": 2,
          "other_platform_oauth_client": [
            {
              "client_id": "1075811629235-ui23kmd1kvt094j3n00brlit093srd13.apps.googleusercontent.com",
              "client_type": 3
            }
          ]
        },
        "ads_service": {
          "status": 2
        }
      }
    }
  ],
  "configuration_version": "1"
}